sub_units = {

	trm_medium_advanced_armor = {
		sprite = medium_armor
		map_icon_category = armored
		priority = 2505
		active = yes
		#cavalry = yes
		type = {
			armor
		}
		
		group = armor
		
		categories = {
			category_tanks
			category_front_line
			category_all_armor
			category_army
			category_medium_armor
		}

		combat_width = 2

		need = {
			trm_medium_advanced_tank_chassis = 40
			#recon_equipment = 60
		}
		manpower = 500
		max_organisation = 0
		default_morale = 0.1
		training_time = 210
		max_strength = 12
		weight = 4
		supply_consumption = 0.45
		own_equipment_fuel_consumption_mult = 2.0 #Fuel use standardized for 25 Tanks, plus some extra for mobility
		fuel_capacity = 0.6
		
		transport = trm_medium_advanced_tank_chassis
		
		suppression = 0.9

		#Tanks are awesome
		soft_attack = 0.5
		hard_attack = 0.5
		defense = 0.5
		breakthrough = 0.5

	}
	
	trm_medium_advanced_cs_armor = {
		sprite = medium_armor
		map_icon_category = armored
		priority = 2515
		active = yes
		#cavalry = yes
		type = {
			armor
		}
		
		group = armor
		
		categories = {
			category_tanks
			category_front_line
			category_all_armor
			category_army
			category_medium_armor
		}

		combat_width = 2

		need = {
			trm_medium_advanced_tank_cs_chassis = 40
			#recon_equipment = 60
		}
		manpower = 500
		max_organisation = 0
		default_morale = 0.1
		training_time = 210
		max_strength = 12
		weight = 4
		supply_consumption = 0.45
		own_equipment_fuel_consumption_mult = 2.0 #Fuel use standardized for 25 Tanks, plus some extra for mobility
		fuel_capacity = 0.6
		
		transport = trm_medium_advanced_tank_cs_chassis
		
		suppression = 0.9

		#Tanks are awesome
		soft_attack = 0.5
		hard_attack = 0.5
		defense = 0.5
		breakthrough = 0.5

	}
	
	trm_medium_advanced_assault_gun = {
		sprite = medium_armor
		map_icon_category = armored
		priority = 2525
		active = yes
		
		type = {
			armor
			artillery
		}
		
		group = artillery
		
		categories = {
			category_front_line
			category_all_armor
			category_army
			category_medium_armor
			category_medium_tank_destroyer
			category_all_tank_destroyer
		}

		combat_width = 1.5

		need = {
			trm_medium_advanced_tank_assault_gun_chassis = 25
		}
		manpower = 300
		max_organisation = 0
		default_morale = 0.1
		max_strength = 6
		training_time = 210
		weight = 2.4
		supply_consumption = 0.3375
		
		armor_value = -0.1
		
		transport = trm_medium_advanced_tank_assault_gun_chassis
		
		suppression = 0.5
	}

	trm_medium_advanced_tank_destroyer = {
		sprite = medium_armor
		map_icon_category = armored
		priority = 2535
		active = yes
		
		type = {
			armor
			anti_tank
		}
		
		group = artillery
		
		categories = {
			category_front_line
			category_all_armor
			category_army
			category_medium_armor
			category_medium_tank_destroyer
			category_all_tank_destroyer
		}

		combat_width = 1.5

		need = {
			trm_medium_advanced_tank_destroyer_chassis = 25
		}
		manpower = 300
		max_organisation = 0
		default_morale = 0.1
		max_strength = 6
		training_time = 210
		weight = 2.4
		supply_consumption = 0.3375
		
		armor_value = -0.1
		
		transport = trm_medium_advanced_tank_destroyer_chassis
		
		suppression = 0.5
	}
	
	trm_medium_advanced_sp_artillery = {
		sprite = medium_armor
		map_icon_category = armored
		priority = 2545
		active = yes
		
		type = {
			armor
			artillery
		}
		
		group = artillery
		
		categories = {
			category_all_armor
			category_army
			category_medium_armor
			category_medium_tank_artillery
			category_all_sp_artillery
		}

		combat_width = 1.5

		need = {
			trm_medium_advanced_tank_artillery_chassis = 25
		}
		manpower = 300
		max_organisation = -2
		default_morale = 0.1
		max_strength = 6
		training_time = 210
		weight = 2.4
		supply_consumption = 0.45
		
		armor_value = -0.1
		
		transport = trm_medium_advanced_tank_artillery_chassis
		
		suppression = 0.5
	}
	
	trm_medium_advanced_sp_anti_air_support = {
		sprite = medium_armor
		map_icon_category = armored
		priority = 2555
		active = yes
		affects_speed = yes
		
		type = {
			support
			anti_air
		}
		
		group = support
		same_support_type = trm_cavalry_sp_anti_air_support
		
		categories = {
			category_all_support_armor
			category_army
			category_medium_tank_anti_air
			category_all_tank_anti_air
		}

		need = {
			trm_medium_advanced_tank_aa_chassis = 20
		}
		manpower = 300
		max_organisation = 0
		default_morale = 0.1
		max_strength = 4.8
		training_time = 150
		weight = 2
		supply_consumption = 0.225
		
		##COMBAT stats
		soft_attack = -0.2
		hard_attack = -0.2
		defense = -0.2
		armor_value = -0.4
		breakthrough = -0.2
		combat_width = 0
		
		transport = trm_medium_advanced_tank_aa_chassis
		
		desert = {
			movement = -0.01
		}
		forest = {
			movement = -0.01
		}
		hills = {
			movement = -0.01
		}
		mountain = 	{
			movement = -0.01
		}
		jungle = {
			movement = -0.01
		}
		marsh = {
			movement = -0.01
		}
		river = { 
			movement = -0.02
		}
		amphibious = { 
			movement = -0.04
			attack = -0.05
		}
	}
	
	trm_medium_advanced_amphibious_armor = {
		sprite = medium_armor
		map_icon_category = armored
		priority = 2565
		active = yes
		#cavalry = yes
		type = {
			armor
		}
		
		group = armor
		
		categories = {
			category_tanks
			category_front_line
			category_all_armor
			category_army
			category_medium_armor
		}

		combat_width = 2

		need = {
			trm_medium_advanced_tank_amphibious_chassis = 40
			#recon_equipment = 60
		}
		manpower = 500
		max_organisation = 0
		default_morale = 0.1
		training_time = 210
		max_strength = 12
		weight = 4
		supply_consumption = 0.45
		own_equipment_fuel_consumption_mult = 2.0 #Fuel use standardized for 25 Tanks, plus some extra for mobility
		fuel_capacity = 0.6
		
		transport = trm_medium_advanced_tank_amphibious_chassis
		
		suppression = 0.9

		#Tanks are awesome
		soft_attack = 0.5
		hard_attack = 0.5
		defense = 0.5
		breakthrough = 0.5

		river = { 
			attack = 0.1
			movement = 0.1
		}
		amphibious = { 
			attack = 0.4
			movement = 0.1
		}
	}
}
